<?xml version="1.0" encoding="UTF-8"?>
<svg xmlns="http://www.w3.org/2000/svg" xmlns:xlink="http://www.w3.org/1999/xlink" width="398" height="115.47" viewBox="0 0 398 115.47">
  <defs>
    <clipPath id="clip-Footer_Logo">
      <rect width="398" height="115.47"></rect>
    </clipPath>
  </defs>
  <g id="Footer_Logo" data-name="Footer Logo" clip-path="url(#clip-Footer_Logo)">
    <g id="Mukn_final_home_logo" data-name="Mukn final home logo" transform="translate(-150 -240.5)">
      <g id="Group_175" data-name="Group 175" transform="translate(150 240.5)">
        <g id="Group_171" data-name="Group 171" transform="translate(0 0)">
          <g id="Group_168" data-name="Group 168">
            <path id="Path_354" data-name="Path 354" d="M57.794,0A57.794,57.794,0,1,1,0,57.794,57.794,57.794,0,0,1,57.794,0Z" fill="#eeecec"></path>
            <circle id="Ellipse_26" data-name="Ellipse 26" cx="1.97" cy="1.97" r="1.97" transform="translate(84.065 37.435)" fill="#d9d9d9"></circle>
            <path id="Subtraction_4" data-name="Subtraction 4" d="M56.883,62.707a56.335,56.335,0,0,1-19.945-3.624,57.458,57.458,0,0,1-16.96-10.016A59.544,59.544,0,0,1,7.25,33.944,60.5,60.5,0,0,1,0,15,72.107,72.107,0,0,0,51.839,36.467c26.441,0,50.608-13.974,63.069-36.467.042.94.063,1.884.063,2.806a61.137,61.137,0,0,1-4.565,23.316A60.517,60.517,0,0,1,105.05,36.3a59.937,59.937,0,0,1-7.093,8.865,58.93,58.93,0,0,1-8.6,7.315A57.565,57.565,0,0,1,79.494,58,56.219,56.219,0,0,1,56.883,62.707Z" transform="translate(1.293 64.913) rotate(-11)" fill="none"></path>
            <path id="Subtraction_3" data-name="Subtraction 3" d="M2.137,114.168c-.716,0-1.435-.013-2.137-.039A71.214,71.214,0,0,0,37.347,51.343,70.828,70.828,0,0,0,15.62,0,56.868,56.868,0,0,1,33.147,7.533,57.794,57.794,0,0,1,47.091,20.2,57.764,57.764,0,0,1,56.3,36.834a58.088,58.088,0,0,1,3.326,19.45,57.87,57.87,0,0,1-4.518,22.532,58.029,58.029,0,0,1-5.3,9.832,58.2,58.2,0,0,1-7.02,8.567,57.954,57.954,0,0,1-8.508,7.068,57.384,57.384,0,0,1-9.765,5.337A56.793,56.793,0,0,1,2.137,114.168Z" transform="translate(55.961 1.145)" fill="#7d7b7b"></path>
            <g id="Group_174" data-name="Group 174" transform="translate(3.284 12.478)">
              <circle id="Ellipse_20" data-name="Ellipse 20" cx="1.97" cy="1.97" r="1.97" transform="translate(20.359 21.016)" fill="#8a8a8a"></circle>
              <g id="Group_173" data-name="Group 173" transform="translate(0)">
                <circle id="Ellipse_15" data-name="Ellipse 15" cx="7.224" cy="7.224" r="7.224" transform="translate(39.405 1.97)" fill="#dedede"></circle>
                <circle id="Ellipse_16" data-name="Ellipse 16" cx="3.284" cy="3.284" r="3.284" transform="translate(53.854)" fill="#dedede"></circle>
                <circle id="Ellipse_21" data-name="Ellipse 21" cx="5.254" cy="5.254" r="5.254" transform="translate(28.897 72.243)" fill="#dedede"></circle>
                <circle id="Ellipse_17" data-name="Ellipse 17" cx="14.12" cy="14.12" r="14.12" transform="translate(4.597 26.27)" fill="#dedede"></circle>
                <circle id="Ellipse_18" data-name="Ellipse 18" cx="3.612" cy="3.612" r="3.612" transform="translate(0 49.913)" fill="#dedede"></circle>
                <circle id="Ellipse_19" data-name="Ellipse 19" cx="1.97" cy="1.97" r="1.97" transform="translate(9.851 55.824)" fill="#dedede"></circle>
                <circle id="Ellipse_22" data-name="Ellipse 22" cx="5.911" cy="5.911" r="5.911" transform="translate(64.362 54.511)" fill="#dedede"></circle>
                <circle id="Ellipse_25" data-name="Ellipse 25" cx="5.911" cy="5.911" r="5.911" transform="translate(74.213 12.478)" fill="#dedede"></circle>
                <circle id="Ellipse_27" data-name="Ellipse 27" cx="3.643" cy="3.643" r="3.643" transform="translate(95.172 52.53)" fill="#727272"></circle>
                <circle id="Ellipse_24" data-name="Ellipse 24" cx="3.284" cy="3.284" r="3.284" transform="translate(43.346 91.289)" fill="#dedede"></circle>
                <circle id="Ellipse_23" data-name="Ellipse 23" cx="11.493" cy="11.493" r="11.493" transform="translate(43.346 63.048)" fill="#dedede"></circle>
              </g>
            </g>
          </g>
          <g id="Group_169" data-name="Group 169" transform="translate(24.3 22.603)">
            <path id="Path_331" data-name="Path 331" d="M130.551,117.555a3.527,3.527,0,0,1-2.516-1.011A3.284,3.284,0,0,1,127,114.056V93.946a10.66,10.66,0,0,1,3.112-7.538,10.814,10.814,0,0,1,3.408-2.307,10.358,10.358,0,0,1,4.134-.829,10.236,10.236,0,0,1,3.875.739,10.636,10.636,0,0,1,3.279,2.082,10.686,10.686,0,0,1,3.265-2.086,10.13,10.13,0,0,1,3.862-.738,10.557,10.557,0,0,1,4.16.829,10.733,10.733,0,0,1,5.739,5.738,10.419,10.419,0,0,1,.83,4.1v20.115a3.4,3.4,0,0,1-1.037,2.488,3.727,3.727,0,0,1-1.153.739,3.64,3.64,0,0,1-2.758,0,3.439,3.439,0,0,1-1.116-.739,3.3,3.3,0,0,1-1.061-2.488V94.2a3.277,3.277,0,0,0-.3-1.361,3.846,3.846,0,0,0-.788-1.153,3.47,3.47,0,0,0-1.166-.764,3.706,3.706,0,0,0-1.4-.273,3.243,3.243,0,0,0-2.462,1.011,3.685,3.685,0,0,0-1.037,2.488V114a3.422,3.422,0,0,1-1.037,2.513,3.557,3.557,0,0,1-6.067-2.49V94.258a3.715,3.715,0,0,0-1.014-2.569,3.5,3.5,0,0,0-1.153-.764,3.68,3.68,0,0,0-1.415-.273,3.453,3.453,0,0,0-2.54,1.037,3.651,3.651,0,0,0-.778,1.153A3.416,3.416,0,0,0,134.1,94.2v19.854a3.285,3.285,0,0,1-1.037,2.488,3.727,3.727,0,0,1-1.153.739,3.528,3.528,0,0,1-1.358.272" transform="translate(-126.998 -83.269)" fill="#1a49a1"></path>
            <path id="Path_332" data-name="Path 332" d="M204.114,122.686a11.987,11.987,0,0,1-4.741-.959,12.544,12.544,0,0,1-6.634-6.607,11.808,11.808,0,0,1-.959-4.717v-9.589a3.268,3.268,0,0,1,.273-1.322,3.464,3.464,0,0,1,1.839-1.827,3.3,3.3,0,0,1,1.308-.273,3.353,3.353,0,0,1,1.335.273,3.806,3.806,0,0,1,1.127.739,3.5,3.5,0,0,1,.739,1.085,3.269,3.269,0,0,1,.273,1.322v9.669a5.323,5.323,0,0,0,.414,2.112,4.868,4.868,0,0,0,1.164,1.674,5.435,5.435,0,0,0,1.736,1.128,5.571,5.571,0,0,0,2.123.4,4.935,4.935,0,0,0,2.021-.4,4.355,4.355,0,0,0,1.557-1.153,5.162,5.162,0,0,0,.959-1.708,6.533,6.533,0,0,0,.337-2.123v-9.589a3.167,3.167,0,0,1,.283-1.308,3.574,3.574,0,0,1,3.238-2.112,3.269,3.269,0,0,1,1.322.273,3.506,3.506,0,0,1,1.088.739,3.186,3.186,0,0,1,.713,1.088,3.556,3.556,0,0,1,.246,1.322v9.589a12.943,12.943,0,0,1-.868,4.741,11.826,11.826,0,0,1-2.477,3.908,11.53,11.53,0,0,1-3.765,2.668,11.343,11.343,0,0,1-4.65.958" transform="translate(-150.404 -88.117)" fill="#1a49a1"></path>
            <path id="Path_333" data-name="Path 333" d="M246.589,123.016a9.593,9.593,0,0,1-3.678-.708,9.279,9.279,0,0,1-3.021-1.981,9.408,9.408,0,0,1-2.054-3,9.078,9.078,0,0,1-.736-3.638V100.245a1.693,1.693,0,0,1,.525-1.239,1.636,1.636,0,0,1,1.2-.5,1.762,1.762,0,0,1,.677.135,1.927,1.927,0,0,1,.581.368,1.693,1.693,0,0,1,.525,1.239v3.787H248.3a1.645,1.645,0,0,1,1.22.513,1.7,1.7,0,0,1,.5,1.229,1.555,1.555,0,0,1-.5,1.17,1.709,1.709,0,0,1-1.229.474H240.61v6.309a5.822,5.822,0,0,0,.455,2.293,5.907,5.907,0,0,0,3.192,3.144,6.126,6.126,0,0,0,2.331.445,5.486,5.486,0,0,0,3.87-1.394,1.884,1.884,0,0,1,1.3-.581,1.553,1.553,0,0,1,1.549,1.557v.03a2.023,2.023,0,0,1-.164.784,2.089,2.089,0,0,1-.455.687,8.49,8.49,0,0,1-6.1,2.325" transform="translate(-166.17 -88.498)" fill="#fff"></path>
            <path id="Path_334" data-name="Path 334" d="M275.919,125.965a8.714,8.714,0,0,1-3.493-.708,9.1,9.1,0,0,1-5.488-8.385V108.8a1.708,1.708,0,0,1,2.907-1.209,1.626,1.626,0,0,1,.5,1.209v8.166a5.769,5.769,0,0,0,.445,2.157,5.522,5.522,0,0,0,1.2,1.79,5.358,5.358,0,0,0,1.761,1.2,5.5,5.5,0,0,0,2.167.425,5.081,5.081,0,0,0,2.109-.435,4.828,4.828,0,0,0,1.664-1.231,5.642,5.642,0,0,0,1.054-1.819,6.458,6.458,0,0,0,.377-2.206V108.8a1.652,1.652,0,0,1,.525-1.2,1.731,1.731,0,0,1,.551-.368,1.688,1.688,0,0,1,.667-.135,1.605,1.605,0,0,1,1.209.5,1.678,1.678,0,0,1,.474,1.209v8.068a9.682,9.682,0,0,1-.637,3.512,9.049,9.049,0,0,1-1.8,2.912,8.491,8.491,0,0,1-2.767,1.964,8.328,8.328,0,0,1-3.431.71Z" transform="translate(-174.992 -91.447)" fill="#fff"></path>
            <path id="Path_335" data-name="Path 335" d="M317.625,112.77a9.58,9.58,0,0,0-2-3,9.317,9.317,0,0,0-2.99-2.012,9.419,9.419,0,0,0-7.224.009,9.271,9.271,0,0,0-3,2.042,9.5,9.5,0,0,0,3,15.411,9.135,9.135,0,0,0,3.617.728,9.272,9.272,0,0,0,5.936-2.13l.019.271a1.784,1.784,0,0,0,.464,1.258,1.558,1.558,0,0,0,1.2.5,1.667,1.667,0,0,0,1.239-.513,1.717,1.717,0,0,0,.5-1.248v-7.7a9.64,9.64,0,0,0-.764-3.618m-3.087,6.047a5.984,5.984,0,0,1-7.834,3.246,5.694,5.694,0,0,1-1.9-1.314,6.065,6.065,0,0,1,0-8.478,5.836,5.836,0,0,1,4.218-1.761,5.9,5.9,0,0,1,2.331.464,6.036,6.036,0,0,1,1.926,1.3,5.932,5.932,0,0,1,1.254,1.922,6.228,6.228,0,0,1,0,4.626" transform="translate(-184.728 -91.429)" fill="#fff"></path>
            <path id="Path_336" data-name="Path 336" d="M344.511,120.551a1.656,1.656,0,0,1-.464,1.209,1.6,1.6,0,0,1-1.2.474h-.04a6.79,6.79,0,0,1-2.525-.464,6.13,6.13,0,0,1-3.415-3.4,6.9,6.9,0,0,1-.484-2.622V98.57a1.685,1.685,0,0,1,.484-1.229,1.588,1.588,0,0,1,1.182-.5,1.764,1.764,0,0,1,1.239.484,1.693,1.693,0,0,1,.525,1.239v17.184a3.136,3.136,0,0,0,.8,2.3,2.973,2.973,0,0,0,2.216.812,1.62,1.62,0,0,1,1.209.484,1.65,1.65,0,0,1,.477,1.2" transform="translate(-197.146 -87.929)" fill="#fff"></path>
          </g>
          <g id="Group_170" data-name="Group 170" transform="translate(33.495 65.115)">
            <path id="Path_337" data-name="Path 337" d="M151.935,182.233a3.494,3.494,0,0,1-1.335-.259,3.32,3.32,0,0,1-1.1-.722,3.506,3.506,0,0,1-.739-1.088,3.269,3.269,0,0,1-.273-1.322V151.394a3.269,3.269,0,0,1,.273-1.322,3.506,3.506,0,0,1,.739-1.088,3.321,3.321,0,0,1,1.1-.722,3.5,3.5,0,0,1,1.335-.259,3.311,3.311,0,0,1,2.436.985,3.507,3.507,0,0,1,.739,1.088,3.269,3.269,0,0,1,.273,1.322v8.626L167.7,148.958a3.565,3.565,0,0,1,2.358-.959,3.233,3.233,0,0,1,1.283.273,3.806,3.806,0,0,1,1.127.739,3.915,3.915,0,0,1,.788,1.14,3.251,3.251,0,0,1,.3,1.373,3.325,3.325,0,0,1-1.059,2.462l-12,10.705,12.491,11.661a3.249,3.249,0,0,1,.985,2.384,3.352,3.352,0,0,1-.273,1.335,3.459,3.459,0,0,1-.739,1.1,3.715,3.715,0,0,1-1.14.778,3.252,3.252,0,0,1-1.322.283,3.307,3.307,0,0,1-2.41-1.037l-12.7-11.793v9.431a3.269,3.269,0,0,1-.273,1.322,3.5,3.5,0,0,1-.737,1.09,3.31,3.31,0,0,1-2.435.985" transform="translate(-148.488 -147.999)" fill="#1a49a1"></path>
            <path id="Path_338" data-name="Path 338" d="M196.885,187.057a3.638,3.638,0,0,1-2.487-.985,3.133,3.133,0,0,1-1.061-2.384v-9.326a11.988,11.988,0,0,1,.959-4.741A12.454,12.454,0,0,1,200.9,163a11.948,11.948,0,0,1,4.717-.946,12.482,12.482,0,0,1,4.807.946,12.741,12.741,0,0,1,4.055,2.654,12.567,12.567,0,0,1,2.758,3.963,11.591,11.591,0,0,1,1,4.741v9.331a3.236,3.236,0,0,1-.959,2.384,3.336,3.336,0,0,1-1.086.726,3.391,3.391,0,0,1-1.324.259,3.551,3.551,0,0,1-1.361-.259,3.319,3.319,0,0,1-1.1-.722,3.116,3.116,0,0,1-1.037-2.384v-9.308a5.177,5.177,0,0,0-.5-2.086,5.461,5.461,0,0,0-1.292-1.75,5.859,5.859,0,0,0-1.839-1.166,5.671,5.671,0,0,0-2.123-.414,5.446,5.446,0,0,0-2.073.4,5.057,5.057,0,0,0-1.684,1.1,5.51,5.51,0,0,0-1.153,1.7,5.381,5.381,0,0,0-.454,2.06v9.457a3.139,3.139,0,0,1-.985,2.384,3.244,3.244,0,0,1-2.383.985Z" transform="translate(-163.783 -152.823)" fill="#1a49a1"></path>
            <path id="Path_339" data-name="Path 339" d="M256.746,177.509a9.592,9.592,0,0,0-2.021-3.038,9.485,9.485,0,1,0,2.031,3.06l-.009-.022m-3.152,5.969a6.119,6.119,0,0,1-3.212,3.241,5.942,5.942,0,0,1-2.351.464v0a5.887,5.887,0,0,1-4.257-1.78,5.993,5.993,0,0,1,1.926-9.772,6.133,6.133,0,0,1,4.683,0,6.036,6.036,0,0,1,1.926,1.3,5.9,5.9,0,0,1,1.287,1.923,6.108,6.108,0,0,1,0,4.625" transform="translate(-180.829 -156.145)" fill="#fff"></path>
            <path id="Path_340" data-name="Path 340" d="M279.017,190.607a6.137,6.137,0,0,1-2.448-.5,6.371,6.371,0,0,1-3.9-5.873V173.424a1.619,1.619,0,0,1,.5-1.22,1.694,1.694,0,0,1,1.22-.484,1.618,1.618,0,0,1,1.182.5,1.639,1.639,0,0,1,.5,1.2l.058,10.756c0,.039-.013.148-.039.328a2.97,2.97,0,0,0,1.006,1.839,2.884,2.884,0,0,0,1.974.755,2.775,2.775,0,0,0,2.148-.967,3.289,3.289,0,0,0,.812-2.245v-10.45a1.667,1.667,0,0,1,.5-1.229,1.713,1.713,0,0,1,2.912,1.229v10.662a.741.741,0,0,1-.019.232,2.886,2.886,0,0,0,.283,1.061,2.786,2.786,0,0,0,.648.87,2.831,2.831,0,0,0,1.993.793,2.938,2.938,0,0,0,1.182-.242,3.137,3.137,0,0,0,.985-.667,3.061,3.061,0,0,0,.657-.967,2.866,2.866,0,0,0,.232-1.141v-10.62a1.636,1.636,0,0,1,.5-1.22,1.754,1.754,0,0,1,2.419,0,1.636,1.636,0,0,1,.5,1.22v10.817a5.948,5.948,0,0,1-.513,2.448,6.749,6.749,0,0,1-1.4,2.042,6.608,6.608,0,0,1-2.09,1.384,6.361,6.361,0,0,1-2.477.5,6.208,6.208,0,0,1-2.561-.532,6.283,6.283,0,0,1-2.08-1.5,6.484,6.484,0,0,1-2.1,1.5,6.2,6.2,0,0,1-2.57.53Z" transform="translate(-191.888 -156.141)" fill="#fff"></path>
            <path id="Path_341" data-name="Path 341" d="M322.323,185.2a1.656,1.656,0,0,1-.464,1.209,1.6,1.6,0,0,1-1.2.474h-.039a6.79,6.79,0,0,1-2.525-.464,6.135,6.135,0,0,1-3.415-3.4,6.9,6.9,0,0,1-.484-2.622V163.22a1.685,1.685,0,0,1,.484-1.229,1.587,1.587,0,0,1,1.182-.5,1.763,1.763,0,0,1,1.239.484,1.693,1.693,0,0,1,.525,1.239V180.4a3.136,3.136,0,0,0,.8,2.3,2.973,2.973,0,0,0,2.216.812,1.62,1.62,0,0,1,1.209.484,1.649,1.649,0,0,1,.477,1.2" transform="translate(-207.798 -152.632)" fill="#fff"></path>
            <path id="Path_342" data-name="Path 342" d="M348.592,177.459a9.482,9.482,0,0,0-15.413-3l-.076.076a9.445,9.445,0,0,0,3.114,15.327,9.293,9.293,0,0,0,3.657.736,13.062,13.062,0,0,0,2.177-.175,8.047,8.047,0,0,0,1.809-.5q1.7-.716,1.7-1.9a1.762,1.762,0,0,0-.135-.677,1.928,1.928,0,0,0-.368-.581,1.629,1.629,0,0,0-1.182-.525,2.074,2.074,0,0,0-1.025.309,5.132,5.132,0,0,1-1.344.581,6.588,6.588,0,0,1-1.635.174,5.729,5.729,0,0,1-3.678-1.314,6.322,6.322,0,0,1-1.273-1.47,5.617,5.617,0,0,1-.736-1.819h13.5a1.626,1.626,0,0,0,1.2-.464,1.577,1.577,0,0,0,.464-1.161,9.266,9.266,0,0,0-.764-3.618m-14.5,2.383a5.967,5.967,0,0,1,.677-1.9,5.829,5.829,0,0,1,3.048-2.6,6.213,6.213,0,0,1,6.028,1.025,5.8,5.8,0,0,1,2.01,3.483Z" transform="translate(-212.189 -156.132)" fill="#fff"></path>
            <path id="Path_343" data-name="Path 343" d="M382.124,161.83a1.638,1.638,0,0,0-1.229-.513,1.6,1.6,0,0,0-1.22.513,1.772,1.772,0,0,0-.484,1.268v8.479a6.4,6.4,0,0,0-2.264-2.535,7.033,7.033,0,0,0-3.751-.91,9.2,9.2,0,0,0-3.628.722,9.461,9.461,0,0,0,0,17.453,9.425,9.425,0,0,0,10.286-2.021,9.6,9.6,0,0,0,2.032-2.99,9.16,9.16,0,0,0,.755-3.589V163.1a1.759,1.759,0,0,0-.5-1.268m-3.384,18.076a6.119,6.119,0,0,1-3.212,3.241,5.942,5.942,0,0,1-2.351.464v0a5.887,5.887,0,0,1-4.257-1.78,5.993,5.993,0,0,1,1.926-9.772,6.133,6.133,0,0,1,4.683,0,6.037,6.037,0,0,1,1.926,1.3,5.9,5.9,0,0,1,1.287,1.923,6.108,6.108,0,0,1,0,4.625" transform="translate(-222.547 -152.57)" fill="#fff"></path>
            <path id="Path_344" data-name="Path 344" d="M417.174,181.165a9.321,9.321,0,0,0-.722-3.657,9.592,9.592,0,0,0-2.021-3.038,9.447,9.447,0,1,0-10.323,15.412,9.2,9.2,0,0,0,3.63.731,9.1,9.1,0,0,0,5.341-1.664l.212.328a2.437,2.437,0,0,1,.212.406,3.683,3.683,0,0,1,.193,1.274q0,3.445-4.585,3.444-.639,0-.929-.019h-.891q-.773,0-1.306.039a6.767,6.767,0,0,0-1.093.174,7.334,7.334,0,0,0-2.245.929,1.91,1.91,0,0,0-.985,1.568,1.537,1.537,0,0,0,.155.657,1.806,1.806,0,0,0,.406.561,1.693,1.693,0,0,0,1.239.525,1.43,1.43,0,0,0,1.019-.408,4.484,4.484,0,0,1,2.748-.832,14.339,14.339,0,0,1,1.547.1,10.2,10.2,0,0,0,1.511.116,7.379,7.379,0,0,0,2.554-.445,6.31,6.31,0,0,0,3.678-3.522,7.507,7.507,0,0,0,.542-2.922,6.284,6.284,0,0,0-1.511-4.45,9.427,9.427,0,0,0,1.627-5.3m-3.86,2.314a6.092,6.092,0,0,1-3.222,3.241,6.019,6.019,0,0,1-2.361.464v0a5.887,5.887,0,0,1-4.257-1.78,5.993,5.993,0,0,1,1.926-9.772,5.9,5.9,0,0,1,2.331-.464,6.016,6.016,0,0,1,4.3,1.761,5.9,5.9,0,0,1,1.287,1.923,6.109,6.109,0,0,1,0,4.625" transform="translate(-234.796 -156.144)" fill="#fff"></path>
            <path id="Path_345" data-name="Path 345" d="M449.779,177.452a9.464,9.464,0,0,0-15.405-2.993.722.722,0,0,0-.078.071,9.445,9.445,0,0,0,3.114,15.328,9.263,9.263,0,0,0,3.659.736,13.012,13.012,0,0,0,2.172-.177,7.669,7.669,0,0,0,1.811-.5c1.132-.474,1.708-1.111,1.708-1.9a1.812,1.812,0,0,0-.131-.673,1.982,1.982,0,0,0-.368-.581,1.62,1.62,0,0,0-1.182-.525,2.005,2.005,0,0,0-1.026.3,4.917,4.917,0,0,1-1.344.581,6.4,6.4,0,0,1-1.635.177,5.719,5.719,0,0,1-3.678-1.314,6.028,6.028,0,0,1-1.274-1.472,5.494,5.494,0,0,1-.736-1.819h13.492a1.619,1.619,0,0,0,1.2-.46,1.591,1.591,0,0,0,.46-1.161,9.269,9.269,0,0,0-.764-3.623m-14.493,2.384a5.948,5.948,0,0,1,.679-1.9,5.812,5.812,0,0,1,3.043-2.6,6.229,6.229,0,0,1,6.029,1.026,5.669,5.669,0,0,1,1.313,1.557,5.831,5.831,0,0,1,.7,1.925Z" transform="translate(-245.081 -156.128)" fill="#fff"></path>
            <path id="Path_346" data-name="Path 346" d="M484.187,186.791a2.066,2.066,0,0,1-1.461-.5,1.72,1.72,0,0,1-.532-1.325q0-1.567,1.993-1.568h7.469a3.128,3.128,0,0,0,1.274-.328,4.075,4.075,0,0,0,1.954-2.117,4.2,4.2,0,0,0,.29-1.576,3.81,3.81,0,0,0-1.2-2.845,3.6,3.6,0,0,0-1.19-.764,3.683,3.683,0,0,0-1.344-.263h-3.114a8,8,0,0,1-2.845-.5,7.074,7.074,0,0,1-2.322-1.415,6.458,6.458,0,0,1-1.585-2.2,6.689,6.689,0,0,1-.561-2.738,7.454,7.454,0,0,1,.571-2.874,7.025,7.025,0,0,1,1.576-2.371,7.278,7.278,0,0,1,5.166-2.129h6.869a2.275,2.275,0,0,1,1.48.435,1.5,1.5,0,0,1,.532,1.229,1.652,1.652,0,0,1-.532,1.314,2.175,2.175,0,0,1-1.48.464h-7.562a3.357,3.357,0,0,0-2.206,1.045,3.514,3.514,0,0,0-.736,1.19,4.041,4.041,0,0,0-.271,1.461,3.738,3.738,0,0,0,.283,1.461,3.854,3.854,0,0,0,.779,1.195,3.263,3.263,0,0,0,1.063.778,2.941,2.941,0,0,0,1.22.271h3.289a8.239,8.239,0,0,1,2.9.513,7.43,7.43,0,0,1,2.419,1.461,6.722,6.722,0,0,1,2.226,5.089,7.539,7.539,0,0,1-2.206,5.341,7.93,7.93,0,0,1-2.419,1.664,7.029,7.029,0,0,1-2.883.6Z" transform="translate(-262.311 -152.557)" fill="#fff"></path>
            <path id="Path_347" data-name="Path 347" d="M530.977,196.2a1.612,1.612,0,0,1-1.2-.5,1.685,1.685,0,0,1-.484-1.229v-6.8a9.155,9.155,0,0,1-2.719,1.9,7.7,7.7,0,0,1-3.2.677,9.27,9.27,0,0,1-3.638-.722,9.367,9.367,0,0,1-5.041-5.041,9.27,9.27,0,0,1-.722-3.638V173.4a1.736,1.736,0,0,1,2.955-1.239,1.683,1.683,0,0,1,.5,1.239v7.527a5.549,5.549,0,0,0,.464,2.245,6.187,6.187,0,0,0,3.2,3.164,5.775,5.775,0,0,0,2.274.455,5.66,5.66,0,0,0,2.233-.455,5.957,5.957,0,0,0,1.9-1.287,6.034,6.034,0,0,0,1.306-1.877,5.448,5.448,0,0,0,.474-2.245V173.4a1.683,1.683,0,0,1,.5-1.239,1.732,1.732,0,0,1,.551-.368,1.688,1.688,0,0,1,.667-.135,1.748,1.748,0,0,1,1.22.5,1.683,1.683,0,0,1,.5,1.239v21.072a1.638,1.638,0,0,1-.513,1.229,1.734,1.734,0,0,1-1.241.494" transform="translate(-274.253 -156.122)" fill="#fff"></path>
            <path id="Path_348" data-name="Path 348" d="M549.581,190.37a1.459,1.459,0,0,1-1.122-.484,1.785,1.785,0,0,1-.445-1.258,1.676,1.676,0,0,1,.435-1.209,1.494,1.494,0,0,1,1.132-.455h7.739a2.633,2.633,0,0,0,.849-.145,2.412,2.412,0,0,0,.774-.435,2.076,2.076,0,0,0,.774-1.683,1.828,1.828,0,0,0-.736-1.568,3.021,3.021,0,0,0-1.642-.542h-3.6a5.07,5.07,0,0,1-2.109-.445,5.5,5.5,0,0,1-1.742-1.239,5.352,5.352,0,0,1-1.141-1.769,5.645,5.645,0,0,1-.406-2.119,5.1,5.1,0,0,1,.425-2.061,5.5,5.5,0,0,1,1.161-1.713,5.2,5.2,0,0,1,1.723-1.141,5.43,5.43,0,0,1,2.09-.406h6.714a1.735,1.735,0,0,1,1.22.445,1.575,1.575,0,0,1,.484,1.22,1.76,1.76,0,0,1-.464,1.239,1.513,1.513,0,0,1-1.142.525h-6.8a1.935,1.935,0,0,0-1.415.6,2.007,2.007,0,0,0-.581,1.415,1.838,1.838,0,0,0,.6,1.432,1.987,1.987,0,0,0,1.394.581h3.892a5.384,5.384,0,0,1,2.167.445,5.185,5.185,0,0,1,1.761,1.239,5.522,5.522,0,0,1,1.141,1.809,5.884,5.884,0,0,1,0,4.3,5.2,5.2,0,0,1-1.161,1.769,5.294,5.294,0,0,1-1.769,1.229,5.47,5.47,0,0,1-2.176.435Z" transform="translate(-285.966 -156.133)" fill="#fff"></path>
            <path id="Path_349" data-name="Path 349" d="M586.351,187.666a9.593,9.593,0,0,1-3.678-.708,9.268,9.268,0,0,1-3.021-1.981,9.4,9.4,0,0,1-2.052-3,9.076,9.076,0,0,1-.736-3.638V164.895a1.693,1.693,0,0,1,.525-1.239,1.639,1.639,0,0,1,1.2-.5,1.763,1.763,0,0,1,.677.135,1.925,1.925,0,0,1,.581.368,1.692,1.692,0,0,1,.525,1.239v3.787h7.684a1.644,1.644,0,0,1,1.22.513,1.694,1.694,0,0,1,.5,1.229,1.558,1.558,0,0,1-.5,1.17,1.709,1.709,0,0,1-1.229.474h-7.685v6.309a5.821,5.821,0,0,0,.455,2.293,5.91,5.91,0,0,0,3.191,3.147,6.127,6.127,0,0,0,2.332.445,5.485,5.485,0,0,0,3.87-1.394,1.884,1.884,0,0,1,1.3-.581,1.553,1.553,0,0,1,1.549,1.558v.029a2.023,2.023,0,0,1-.164.783,2.087,2.087,0,0,1-.455.687,8.493,8.493,0,0,1-6.1,2.325" transform="translate(-295.773 -153.2)" fill="#fff"></path>
            <path id="Path_350" data-name="Path 350" d="M623.376,177.459a9.482,9.482,0,0,0-15.412-3c-.026.026-.051.05-.076.076A9.444,9.444,0,0,0,611,189.863a9.293,9.293,0,0,0,3.658.736,13.063,13.063,0,0,0,2.176-.175,8.048,8.048,0,0,0,1.809-.5q1.7-.716,1.7-1.9a1.763,1.763,0,0,0-.135-.677,1.927,1.927,0,0,0-.368-.581,1.629,1.629,0,0,0-1.182-.525,2.077,2.077,0,0,0-1.025.309,5.132,5.132,0,0,1-1.344.581,6.589,6.589,0,0,1-1.635.174,5.728,5.728,0,0,1-3.678-1.314,6.326,6.326,0,0,1-1.274-1.47,5.618,5.618,0,0,1-.736-1.819h13.5a1.626,1.626,0,0,0,1.2-.464,1.577,1.577,0,0,0,.464-1.161,9.266,9.266,0,0,0-.764-3.618m-14.505,2.383a5.971,5.971,0,0,1,.677-1.9,5.83,5.83,0,0,1,3.048-2.6,6.213,6.213,0,0,1,6.028,1.025,5.8,5.8,0,0,1,2.01,3.483Z" transform="translate(-304.397 -156.132)" fill="#fff"></path>
            <path id="Path_351" data-name="Path 351" d="M641.7,190.073a1.694,1.694,0,0,1-1.22-.484,1.619,1.619,0,0,1-.5-1.22V177.189a6.168,6.168,0,0,1,.5-2.438,6.439,6.439,0,0,1,3.406-3.415,6.305,6.305,0,0,1,5,.048,6.733,6.733,0,0,1,2.109,1.49,6.5,6.5,0,0,1,2.09-1.49,6.137,6.137,0,0,1,2.554-.542,6.362,6.362,0,0,1,2.477.5,6.767,6.767,0,0,1,2.09,1.364,6.668,6.668,0,0,1,1.4,2.061,5.991,5.991,0,0,1,.513,2.43v11.181a1.636,1.636,0,0,1-.5,1.22,1.754,1.754,0,0,1-2.419,0,1.636,1.636,0,0,1-.5-1.22V177.283a2.885,2.885,0,0,0-.263-1.113,3.243,3.243,0,0,0-.665-.958,3.042,3.042,0,0,0-.985-.629,3.076,3.076,0,0,0-1.141-.222,2.788,2.788,0,0,0-1.993.793,2.879,2.879,0,0,0-.929,1.935.748.748,0,0,1,.019.232v11.008a1.689,1.689,0,0,1-.135.667,1.73,1.73,0,0,1-.368.551,1.693,1.693,0,0,1-2.395.011l-.011-.011a1.677,1.677,0,0,1-.5-1.22V177.418a3.18,3.18,0,0,0-.222-1.182,3.214,3.214,0,0,0-.609-.985,2.917,2.917,0,0,0-2.129-.91,2.884,2.884,0,0,0-1.974.755,2.97,2.97,0,0,0-1.006,1.839,1.7,1.7,0,0,1,.039.31l-.058,11.127a1.669,1.669,0,0,1-1.635,1.7H641.7" transform="translate(-316.852 -155.84)" fill="#fff"></path>
            <path id="Path_352" data-name="Path 352" d="M681.1,190.37a1.459,1.459,0,0,1-1.122-.484,1.785,1.785,0,0,1-.445-1.258,1.677,1.677,0,0,1,.435-1.209,1.494,1.494,0,0,1,1.132-.455h7.741a2.632,2.632,0,0,0,.849-.145,2.425,2.425,0,0,0,.774-.435,2.076,2.076,0,0,0,.774-1.683,1.827,1.827,0,0,0-.735-1.568,3.021,3.021,0,0,0-1.642-.542h-3.6a5.076,5.076,0,0,1-2.109-.445,5.5,5.5,0,0,1-1.742-1.239,5.362,5.362,0,0,1-1.142-1.769,5.658,5.658,0,0,1-.406-2.119,5.1,5.1,0,0,1,.424-2.061,5.515,5.515,0,0,1,1.161-1.713,5.211,5.211,0,0,1,1.723-1.141,5.431,5.431,0,0,1,2.09-.406h6.714a1.732,1.732,0,0,1,1.22.445,1.571,1.571,0,0,1,.484,1.22,1.758,1.758,0,0,1-.464,1.239,1.511,1.511,0,0,1-1.141.525h-6.8a1.935,1.935,0,0,0-1.415.6,2.01,2.01,0,0,0-.581,1.415,1.839,1.839,0,0,0,.6,1.432,1.988,1.988,0,0,0,1.394.581h3.892a5.383,5.383,0,0,1,2.167.445,5.186,5.186,0,0,1,1.761,1.239,5.52,5.52,0,0,1,1.141,1.809,5.878,5.878,0,0,1,0,4.3,5.2,5.2,0,0,1-1.161,1.769,5.294,5.294,0,0,1-1.769,1.229,5.471,5.471,0,0,1-2.177.435Z" transform="translate(-330.14 -156.133)" fill="#fff"></path>
          </g>
        </g>
      </g>
    </g>
  </g>
</svg>
